<svg width="14" height="14" viewBox="0 0 14 14" fill="none" xmlns="http://www.w3.org/2000/svg">
<path d="M9.42895 2.36512V4.19416C10.6496 4.98954 11.4578 6.36387 11.4578 7.92954C11.4578 10.3909 9.46191 12.3865 6.99995 12.3865C4.53857 12.3865 2.5427 10.3909 2.5427 7.92954C2.5427 6.538 3.18028 5.29608 4.17953 4.47825V2.55354C2.24724 3.56971 0.929199 5.59475 0.929199 7.92896C0.929199 11.2817 3.64753 14 7.00053 14C10.353 14 13.0707 11.2817 13.0707 7.92896C13.0704 5.43987 11.5727 3.30225 9.42895 2.36512Z" fill="black"/>
<path d="M7.89339 6.28892C7.89339 6.68121 7.49352 6.99971 7.00002 6.99971C6.5071 6.99971 6.10693 6.6815 6.10693 6.28892V0.710792C6.10693 0.318208 6.5071 0 7.00002 0C7.49352 0 7.89339 0.318208 7.89339 0.710792V6.28892Z" fill="black"/>
</svg>
