<svg width="16" height="16" viewBox="0 0 16 16" fill="none" xmlns="http://www.w3.org/2000/svg">
<circle cx="8" cy="8" r="7.3" stroke="#676F81" stroke-width="1.4"/>
<path d="M8 11V12" stroke="#676F81" stroke-width="1.4"/>
<path d="M8 4V9" stroke="#676F81" stroke-width="1.4"/>
</svg>
