<svg width="110" height="32" viewBox="0 0 110 32" fill="none" xmlns="http://www.w3.org/2000/svg">
<path d="M53.3624 9C54.512 9 55.6153 9.15475 56.6723 9.46426C57.7293 9.77377 58.6667 10.2795 59.4845 10.9816C60.3023 11.6761 60.9195 12.4876 61.3361 13.4161C61.7528 14.3447 61.9611 15.4279 61.9611 16.666C61.9611 17.8285 61.7643 18.942 61.3709 20.0064C60.9774 21.0632 60.3679 21.9766 59.5423 22.7466C58.7168 23.5091 57.71 24.0753 56.5218 24.4452C55.3414 24.8151 54.0992 25 52.7954 25C51.5609 25 50.3728 24.8301 49.2309 24.4904C48.0968 24.1507 47.117 23.6185 46.2914 22.8938C45.4736 22.1691 44.8873 21.3388 44.5324 20.4027C44.1775 19.4591 44 18.44 44 17.3454C44 16.1451 44.2199 14.9976 44.6597 13.903C45.1071 12.8084 45.7591 11.9026 46.6155 11.1854C47.4796 10.4683 48.4864 9.92475 49.636 9.55485C50.7933 9.18495 52.0354 9 53.3624 9ZM53.1773 11.4119C52.0123 11.4119 50.9977 11.6761 50.1336 12.2045C49.2695 12.7254 48.6176 13.4426 48.1778 14.356C47.7457 15.2619 47.5297 16.2432 47.5297 17.3001C47.5297 18.2814 47.738 19.1873 48.1547 20.0177C48.579 20.8405 49.2271 21.4709 50.0989 21.9087C50.9707 22.339 51.912 22.5541 52.9227 22.5541C53.6865 22.5541 54.4156 22.4258 55.1099 22.1691C55.8043 21.9125 56.4022 21.5237 56.9037 21.0028C57.4129 20.4744 57.7948 19.8403 58.0494 19.1005C58.3041 18.3607 58.4314 17.5907 58.4314 16.7905C58.4314 16.0432 58.3156 15.326 58.0842 14.6391C57.8604 13.9521 57.5094 13.3633 57.031 12.8726C56.5527 12.3744 55.974 12.0083 55.2951 11.7742C54.6239 11.5327 53.9179 11.4119 53.1773 11.4119Z" fill="url(#paint0_linear_8298_318)"/>
<path d="M68.5113 24.7282L68.0715 23.3015C68.0098 23.1128 67.7552 22.3918 67.3077 21.1387L65.0626 14.8882L63.0026 9.27176C63.7973 9.28686 64.457 9.29441 64.9816 9.29441C65.3056 9.29441 65.8727 9.28686 66.6828 9.27176L67.0416 10.5287C67.1187 10.7853 67.2306 11.1326 67.3772 11.5704L70.1778 19.8705C70.3475 20.4065 70.5674 21.1123 70.8375 21.988L71.4624 20.6065C71.6167 20.2668 71.9369 19.6025 72.4229 18.6136L76.0684 11.1628C76.1764 10.9439 76.2844 10.7136 76.3924 10.472C76.5004 10.2229 76.6702 9.82284 76.9016 9.27176C77.7426 9.28686 78.383 9.29441 78.8227 9.29441C79.085 9.29441 79.6907 9.28686 80.6397 9.27176L79.6444 11.0835L73.314 23.3128L72.6428 24.7282C71.6398 24.7131 70.9686 24.7056 70.6291 24.7056C70.3282 24.7056 69.6223 24.7131 68.5113 24.7282Z" fill="url(#paint1_linear_8298_318)"/>
<path d="M78.9269 24.7282C79.7293 23.3392 80.6705 21.6218 81.7507 19.5761L84.7943 13.8577C85.7433 12.0913 86.5302 10.5626 87.1552 9.27176C88.1582 9.28686 88.868 9.29441 89.2846 9.29441C90.0175 9.29441 90.7351 9.28686 91.4371 9.27176L93.0921 13.903L96.6912 23.4827L97.1889 24.7282L95.4529 24.7056C95.0517 24.7056 94.3766 24.7131 93.4277 24.7282C93.2425 24.0564 92.9493 23.1505 92.5481 22.0106C92.1547 20.8707 91.819 19.946 91.5413 19.2364H85.454C84.5513 21.033 83.6718 22.8636 82.8154 24.7282L80.929 24.7056C80.5741 24.7056 79.9067 24.7131 78.9269 24.7282ZM86.484 16.8811H90.9164L89.0994 11.6497L88.162 13.552L86.484 16.8811Z" fill="url(#paint2_linear_8298_318)"/>
<path d="M98.7859 24.7282C99.0174 22.456 99.2025 19.9271 99.3414 17.1415C99.4803 14.3484 99.5613 11.7252 99.5844 9.27176C100.371 9.28686 101.027 9.29441 101.552 9.29441C101.907 9.29441 102.474 9.28686 103.253 9.27176C103.153 10.6306 103.06 12.1781 102.975 13.9144L102.744 18.4551C102.674 19.7535 102.624 21.0443 102.593 22.3277L104.584 22.3503C106.451 22.3503 107.678 22.3465 108.264 22.339C108.85 22.3239 109.429 22.3013 110 22.2711C109.931 23.0109 109.869 23.8299 109.815 24.7282C107.786 24.7131 106.05 24.7056 104.607 24.7056L100.962 24.7169L98.7859 24.7282Z" fill="url(#paint3_linear_8298_318)"/>
<path fillRule="evenodd" clipRule="evenodd" d="M0 15.5897C0 20.1035 1.91827 24.1691 4.98397 27.016C7.83083 30.0818 11.8965 32 16.4103 32C25.0202 32 32 25.0202 32 16.4103C32 11.8965 30.0817 7.83089 27.016 4.98399C24.1692 1.91824 20.1035 0 15.5897 0C6.97977 0 0 6.97977 0 15.5897ZM15.5897 28.7179C22.8402 28.7179 28.7179 22.8403 28.7179 15.5897C28.7179 8.33923 22.8402 2.46154 15.5897 2.46154C8.33924 2.46154 2.46154 8.33923 2.46154 15.5897C2.46154 22.8403 8.33924 28.7179 15.5897 28.7179Z" fill="url(#paint4_linear_8298_318)"/>
<path fillRule="evenodd" clipRule="evenodd" d="M15.59 27.0769C21.9341 27.0769 27.0771 21.9339 27.0771 15.5897C27.0771 9.24556 21.9341 4.10256 15.59 4.10256C9.24581 4.10256 4.10278 9.24556 4.10278 15.5897C4.10278 21.9339 9.24581 27.0769 15.59 27.0769ZM12.4206 24.5849C16.6261 26.5566 21.7699 24.4556 23.9094 19.892C26.0489 15.3285 24.374 10.0307 20.1684 8.05896C15.9629 6.08725 10.8191 8.18834 8.67961 12.7519C6.54008 17.3154 8.21496 22.6132 12.4206 24.5849Z" fill="url(#paint5_linear_8298_318)"/>
<defs>
<linearGradient id="paint0_linear_8298_318" x1="44" y1="16.9981" x2="110.166" y2="16.9981" gradientUnits="userSpaceOnUse">
<stop stop-color="white"/>
<stop offset="1" stop-color="white" stop-opacity="0.72"/>
</linearGradient>
<linearGradient id="paint1_linear_8298_318" x1="44" y1="16.9981" x2="110.166" y2="16.9981" gradientUnits="userSpaceOnUse">
<stop stop-color="white"/>
<stop offset="1" stop-color="white" stop-opacity="0.72"/>
</linearGradient>
<linearGradient id="paint2_linear_8298_318" x1="44" y1="16.9981" x2="110.166" y2="16.9981" gradientUnits="userSpaceOnUse">
<stop stop-color="white"/>
<stop offset="1" stop-color="white" stop-opacity="0.72"/>
</linearGradient>
<linearGradient id="paint3_linear_8298_318" x1="44" y1="16.9981" x2="110.166" y2="16.9981" gradientUnits="userSpaceOnUse">
<stop stop-color="white"/>
<stop offset="1" stop-color="white" stop-opacity="0.72"/>
</linearGradient>
<linearGradient id="paint4_linear_8298_318" x1="0" y1="0" x2="37.3961" y2="8.63751" gradientUnits="userSpaceOnUse">
<stop stop-color="#69E77F"/>
<stop offset="1" stop-color="#D0FB48"/>
</linearGradient>
<linearGradient id="paint5_linear_8298_318" x1="4.10278" y1="4.10256" x2="30.9513" y2="10.3039" gradientUnits="userSpaceOnUse">
<stop stop-color="#69E77F"/>
<stop offset="1" stop-color="#D0FB48"/>
</linearGradient>
</defs>
</svg>
